field,source,description,ch_type,is_array,width,pg_type
ym:pv:GCLID,hits,GCLID,String,0,,text
ym:pv:URL,hits,URL,String,0,,text
ym:pv:UTMCampaign,hits,UTM Campaign,String,0,,text
ym:pv:UTMContent,hits,UTM Content,String,0,,text
ym:pv:UTMMedium,hits,UTM Medium,String,0,,text
ym:pv:UTMSource,hits,UTM Source,String,0,,text
ym:pv:UTMTerm,hits,UTM Term,String,0,,text
ym:pv:artificial,hits,"Artificial hit created with hit(), event() or other functions",UInt8,0,8,bool
ym:pv:browser,hits,Browser,String,0,,text
ym:pv:browserCountry,hits,Browser country,String,0,,text
ym:pv:browserEngine,hits,Browser engine,String,0,,text
ym:pv:browserEngineVersion1,hits,Major-version of browser engine,UInt16,0,16,int2
ym:pv:browserEngineVersion2,hits,Minor-version of browser engine,UInt16,0,16,int2
ym:pv:browserEngineVersion3,hits,Build-version of browser engine,UInt16,0,16,int2
ym:pv:browserEngineVersion4,hits,Revision-version of browser engine,UInt16,0,16,int2
ym:pv:browserLanguage,hits,Browser language,String,0,,char(2)
ym:pv:browserMajorVersion,hits,Major version of browser,UInt16,0,16,int2
ym:pv:browserMinorVersion,hits,Minor version of browser,UInt16,0,16,int2
ym:pv:clientID,hits,ID of user on site,UInt64,0,64,numeric
ym:pv:clientTimeZone,hits,Time zone on user's computer,Int16,0,16,int2
ym:pv:cookieEnabled,hits,Cookie,UInt8,0,8,bool
ym:pv:counterID,hits,Counter number,UInt32,0,32,int4
ym:pv:date,hits,Event date,Date,0,,date
ym:pv:dateTime,hits,Event date and time,DateTime,0,,timestamp
ym:pv:deviceCategory,hits,"Device type: 1 - desktop, 2 - mobile phones, 3 - tablets, 4 - TV",String,0,,text
ym:pv:download,hits,File download,UInt8,0,8,bool
ym:pv:flashMajor,hits,Flash major version number,UInt8,0,8,int2
ym:pv:flashMinor,hits,Flash minor version number,UInt8,0,8,int2
ym:pv:from,hits,From tags,String,0,,text
ym:pv:goalsID,hits,IDs of goal conversions,UInt32,1,32,int4[]
ym:pv:hasGCLID,hits,GCLID presence,UInt8,0,8,bool
ym:pv:httpError,hits,Еrror code,String,0,,text
ym:pv:iFrame,hits,Was there a hit from iframe,UInt8,0,8,bool
ym:pv:ipAddress,hits,IP address,String,0,,varchar(15)
ym:pv:javascriptEnabled,hits,JavaScript present,UInt8,0,8,bool
ym:pv:lastAdvEngine,hits,Ad system,String,0,,text
ym:pv:lastSearchEngine,hits,Search engine (detailed),String,0,,text
ym:pv:lastSearchEngineRoot,hits,Search engine,String,0,,text
ym:pv:lastSocialNetwork,hits,Social network,String,0,,text
ym:pv:lastSocialNetworkProfile,hits,"Country of social network, from which there was a click-through",String,0,,text
ym:pv:lastTrafficSource,hits,Traffic source,String,0,,text
ym:pv:link,hits,Was link traffic a hit,UInt8,0,8,bool
ym:pv:mobilePhone,hits,Device manufacturer,String,0,,text
ym:pv:mobilePhoneModel,hits,Device model,String,0,,text
ym:pv:networkType,hits,Connection type,String,0,,text
ym:pv:notBounce,hits,"Special event ""non-bounce"", for accurate bounce rate",UInt8,0,8,bool
ym:pv:openstatAd,hits,Openstat Ad,String,0,,text
ym:pv:openstatCampaign,hits,Openstat Campaign,String,0,,text
ym:pv:openstatService,hits,Openstat Service,String,0,,text
ym:pv:openstatSource,hits,Openstat Source,String,0,,text
ym:pv:operatingSystem,hits,Operating system (detailed),String,0,,text
ym:pv:operatingSystemRoot,hits,Operating systems group,String,0,,text
ym:pv:pageCharset,hits,Encoding of site page,String,0,,text
ym:pv:params,hits,Parameters,String,0,,jsonb
ym:pv:physicalScreenHeight,hits,Physical height,UInt16,0,16,int2
ym:pv:physicalScreenWidth,hits,Physical width,UInt16,0,16,int2
ym:pv:referer,hits,Referrer,String,0,,text
ym:pv:regionCity,hits,City (English name),String,0,,text
ym:pv:regionCityID,hits,City ID,UInt32,0,32,int4
ym:pv:regionCountry,hits,Country (ISO),String,0,,text
ym:pv:regionCountryID,hits,Country ID,UInt32,0,32,int4
ym:pv:screenColors,hits,Color depth,UInt8,0,8,int2
ym:pv:screenFormat,hits,Aspect ratio,UInt16,0,16,int2
ym:pv:screenHeight,hits,Logical height,UInt16,0,16,int2
ym:pv:screenOrientation,hits,Screen orientation,String,0,,text
ym:pv:screenWidth,hits,Logical width,UInt16,0,16,int2
ym:pv:shareService,hits,"""Share"" button, service name",String,0,,text
ym:pv:shareTitle,hits,"""Share"" button, page title",String,0,,text
ym:pv:shareURL,hits,"""Share"" button, URL",String,0,,text
ym:pv:title,hits,Page title,String,0,,text
ym:pv:watchID,hits,Hit ID,UInt64,0,64,numeric
ym:pv:windowClientHeight,hits,Window height,UInt16,0,16,int2
ym:pv:windowClientWidth,hits,Window width,UInt16,0,16,int2
ym:s:UTMCampaign,visits,UTM Campaign,String,0,,text
ym:s:UTMContent,visits,UTM Content,String,0,,text
ym:s:UTMMedium,visits,UTM Medium,String,0,,text
ym:s:UTMSource,visits,UTM Source,String,0,,text
ym:s:UTMTerm,visits,UTM Term,String,0,,text
ym:s:bounce,visits,Bounce rate,UInt8,0,8,bool
ym:s:browser,visits,Browser,String,0,,text
ym:s:browserCountry,visits,Browser country,String,0,,text
ym:s:browserEngine,visits,Browser engine,String,0,,text
ym:s:browserEngineVersion1,visits,Major-version of browser engine,UInt16,0,16,int2
ym:s:browserEngineVersion2,visits,Minor-version of browser engine,UInt16,0,16,int2
ym:s:browserEngineVersion3,visits,Build-version of browser engine,UInt16,0,16,int2
ym:s:browserEngineVersion4,visits,Revision-version of browser engine,UInt16,0,16,int2
ym:s:browserLanguage,visits,Browser language,String,0,,char(2)
ym:s:browserMajorVersion,visits,Major version of browser,UInt16,0,16,int2
ym:s:browserMinorVersion,visits,Minor version of browser,UInt16,0,16,int2
ym:s:clientID,visits,ID of user on site,UInt64,0,64,numeric
ym:s:clientTimeZone,visits,Time zone on user's computer,Int16,0,16,int2
ym:s:cookieEnabled,visits,Cookie,UInt8,0,8,bool
ym:s:counterID,visits,Counter number,UInt32,0,32,int4
ym:s:date,visits,Date of visit,Date,0,,date
ym:s:dateTime,visits,Date and time of visit,DateTime,0,,timestamp
ym:s:dateTimeUTC,visits,unix timestamp first hit time,DateTime,0,,timestamp
ym:s:deviceCategory,visits,"Device type: 1 - desktop, 2 - mobile phones, 3 - tablets, 4 - TV",String,0,,text
ym:s:endURL,visits,Exit page,String,0,,text
ym:s:firstGCLID,visits,GCLID of first visit,String,0,,text
ym:s:flashMajor,visits,Flash major version number,UInt8,0,8,int2
ym:s:flashMinor,visits,Flash minor version number,UInt8,0,8,int2
ym:s:from,visits,From tags,String,0,,text
ym:s:goalsCurrency,visits,Currency ID,String,1,,text[]
ym:s:goalsDateTime,visits,Conversion time of each goal,DateTime,1,,timestamp[]
ym:s:goalsID,visits,ID of goal conversions that occurred during this session,UInt32,1,32,int4[]
ym:s:goalsOrder,visits,Orders ID,String,1,,text[]
ym:s:goalsPrice,visits,Goal value,Int64,1,64,int8[]
ym:s:goalsSerialNumber,visits,Serial numbers of goal conversion with specific ID,UInt32,1,32,int4[]
ym:s:hasGCLID,visits,GCLID presence,UInt8,0,8,bool
ym:s:impressionsDateTime,visits,Date and time of page view,DateTime,1,,timestamp[]
ym:s:impressionsProductBrand,visits,Manufacturer of viewed item,String,1,,text[]
ym:s:impressionsProductCategory,visits,Category which the viewed item belongs to,String,1,,text[]
ym:s:impressionsProductCategory1,visits,"Category which the viewed item belongs to, level 1",String,1,,text[]
ym:s:impressionsProductCategory2,visits,"Category which the viewed item belongs to, level 2",String,1,,text[]
ym:s:impressionsProductCategory3,visits,"Category which the viewed item belongs to, level 3",String,1,,text[]
ym:s:impressionsProductCategory4,visits,"Category which the viewed item belongs to, level 4",String,1,,text[]
ym:s:impressionsProductCategory5,visits,"Category which the viewed item belongs to, level 5",String,1,,text[]
ym:s:impressionsProductCoupon,visits,"Promo code, associated with viewed item",String,1,,text[]
ym:s:impressionsProductCurrency,visits,Currency for item,String,1,,text[]
ym:s:impressionsProductID,visits,ID of viewed item,String,1,,text[]
ym:s:impressionsProductName,visits,Name of viewed item,String,1,,text[]
ym:s:impressionsProductPrice,visits,Price of viewed item,Int64,1,64,int8[]
ym:s:impressionsProductVariant,visits,Type of viewed item,String,1,,text[]
ym:s:impressionsURL,visits,URL of page with item,String,1,,text[]
ym:s:ipAddress,visits,IP address,String,0,,varchar(15)
ym:s:isNewUser,visits,Is this the user's first visit,UInt8,0,8,bool
ym:s:javascriptEnabled,visits,JavaScript present,UInt8,0,8,bool
ym:s:lastAdvEngine,visits,Ad system,String,0,,text
ym:s:lastClickBannerGroupName,visits,Ad group name,String,0,,text
ym:s:lastCurrencyID,visits,Currency,String,0,,text
ym:s:lastDirectBannerGroup,visits,Ad group,UInt32,0,32,int4
ym:s:lastDirectClickBanner,visits,Yandex,String,0,,text
ym:s:lastDirectClickBannerName,visits,Yandex,String,0,,text
ym:s:lastDirectClickOrder,visits,Yandex,UInt32,0,32,int4
ym:s:lastDirectClickOrderName,visits,Yandex,String,0,,text
ym:s:lastDirectConditionType,visits,Type of ad impression criteria,String,0,,text
ym:s:lastDirectPhraseOrCond,visits,Ad impression criteria,String,0,,text
ym:s:lastDirectPlatform,visits,Site,String,0,,text
ym:s:lastDirectPlatformType,visits,Site type,String,0,,text
ym:s:lastGCLID,visits,GCLID of last visit,String,0,,text
ym:s:lastReferalSource,visits,Referral traffic,String,0,,text
ym:s:lastSearchEngine,visits,Search engine (detailed),String,0,,text
ym:s:lastSearchEngineRoot,visits,Search engine,String,0,,text
ym:s:lastSignificantGCLID,visits,GCLID of last significant visit,String,0,,text
ym:s:lastSocialNetwork,visits,Social network,String,0,,text
ym:s:lastSocialNetworkProfile,visits,Social networks group,String,0,,text
ym:s:lastTrafficSource,visits,Traffic source,String,0,,text
ym:s:mobilePhone,visits,Device manufacturer,String,0,,text
ym:s:mobilePhoneModel,visits,Device model,String,0,,text
ym:s:networkType,visits,Connection type,String,0,,text
ym:s:offlineCallFirstTimeCaller,visits,Indicates a first-time call,UInt32,1,32,int4[]
ym:s:offlineCallHoldDuration,visits,Time on hold (seconds),UInt32,1,32,int4[]
ym:s:offlineCallMissed,visits,Indicates a missed call,UInt32,1,32,int4[]
ym:s:offlineCallTag,visits,Custom tag,String,1,,text[]
ym:s:offlineCallTalkDuration,visits,Call duration (seconds),UInt32,1,32,int4[]
ym:s:offlineCallURL,visits,"URL the call was from (page, associated with an event)",String,1,,text[]
ym:s:openstatAd,visits,Openstat Ad,String,0,,text
ym:s:openstatCampaign,visits,Openstat Campaign,String,0,,text
ym:s:openstatService,visits,Openstat Service,String,0,,text
ym:s:openstatSource,visits,Openstat Source,String,0,,text
ym:s:operatingSystem,visits,Operating system (detailed),String,0,,text
ym:s:operatingSystemRoot,visits,Operating systems group,String,0,,text
ym:s:pageViews,visits,Page depth (detailed),Int32,0,32,int4
ym:s:params,visits,Session parameters,String,0,,jsonb
ym:s:physicalScreenHeight,visits,Physical height,UInt16,0,16,int2
ym:s:physicalScreenWidth,visits,Physical width,UInt16,0,16,int2
ym:s:productsBrand,visits,Manufacturer of item,String,1,,text[]
ym:s:productsCategory,visits,Category which the item belongs to,String,1,,text[]
ym:s:productsCategory1,visits,"Category which the item belongs to, level 1",String,1,,text[]
ym:s:productsCategory2,visits,"Category which the item belongs to, level 2",String,1,,text[]
ym:s:productsCategory3,visits,"Category which the item belongs to, level 3",String,1,,text[]
ym:s:productsCategory4,visits,"Category which the item belongs to, level 4",String,1,,text[]
ym:s:productsCategory5,visits,"Category which the item belongs to, level 5",String,1,,text[]
ym:s:productsCoupon,visits,"Promo code, associated with item",String,1,,text[]
ym:s:productsCurrency,visits,Currency for item,String,1,,text[]
ym:s:productsID,visits,Product ID,String,1,,text[]
ym:s:productsName,visits,Item name,String,1,,text[]
ym:s:productsPosition,visits,Item position in list,Int32,1,32,int4[]
ym:s:productsPrice,visits,Item price,Float64,1,64,numeric[]
ym:s:productsPurchaseID,visits,Purchase ID,String,1,,text[]
ym:s:productsQuantity,visits,Number of items,Int64,1,64,int8[]
ym:s:productsVariant,visits,Type of item,String,1,,text[]
ym:s:purchaseAffiliation,visits,Store or affiliate where transaction took place,String,1,,text[]
ym:s:purchaseCoupon,visits,"Promo code, associated with the whole purchase",String,1,,text[]
ym:s:purchaseCurrency,visits,Currency,String,1,,text[]
ym:s:purchaseDateTime,visits,Purchase date and time,DateTime,1,,timestamp[]
ym:s:purchaseID,visits,Purchase ID,String,1,,text[]
ym:s:purchaseProductQuantity,visits,Number of items in purchase,Int64,1,64,int8[]
ym:s:purchaseRevenue,visits,Received income,Float64,1,64,numeric[]
ym:s:purchaseShipping,visits,"Delivery cost, connected with transaction",Float64,1,64,numeric[]
ym:s:purchaseTax,visits,"Sum of all taxes, connected with transaction",Float64,1,64,numeric[]
ym:s:referer,visits,Referrer,String,0,,text
ym:s:regionCity,visits,City (English name),String,0,,text
ym:s:regionCityID,visits,City ID,UInt32,0,32,int4
ym:s:regionCountry,visits,Country (ISO),String,0,,text
ym:s:regionCountryID,visits,Country ID,UInt32,0,32,int4
ym:s:screenColors,visits,Color depth,UInt8,0,8,int2
ym:s:screenFormat,visits,Aspect ratio,UInt16,0,16,int2
ym:s:screenHeight,visits,Logical height,UInt16,0,16,int2
ym:s:screenOrientation,visits,Screen orientation,String,0,,text
ym:s:screenWidth,visits,Logical width,UInt16,0,16,int2
ym:s:startURL,visits,Landing page,String,0,,text
ym:s:visitDuration,visits,Time on site (detailed),UInt32,0,32,int4
ym:s:visitID,visits,Session ID,UInt64,0,64,numeric
ym:s:watchIDs,visits,Hits that were in this session,UInt64,1,64,numeric[]
ym:s:windowClientHeight,visits,Window height,UInt16,0,16,int2
ym:s:windowClientWidth,visits,Window width,UInt16,0,16,int2
